{
	"title": "Правовая помощь в Могилёве",
	"logoPath": "/assets/img/logo_large.png",
	"description": "адвокат Белова Ксения Сергеевна. Оказание правовой помощи в городе Могилёве, а также на территории всей Республики Беларусь. Составление заявлений, представительство интересов в органах государственной власти, консультирование по юридическим вопросам",
	"companyName": "Специализированная юридическая консультация «Бизнес-Право»",
	"companyParent": "Могилёвская областная коллегия адвокатов",
	"companyIndex": 212030,
	"companyCity": "г. Могилёв",
	"companyAddress1": "ул. Ленинская, 63",
	"companyAddress2": "оф. 410",
	"personName": "БЕЛОВА КСЕНИЯ СЕРГЕЕВНА",
	"personTitle": "АДВОКАТ",
	"personSpecialization": "по гражданским и экономическим делам",
	"badgeText": "ПОЛУЧИТЬ ЮРИДИЧЕСКУЮ КОНСУЛЬТАЦИЮ",

	"navigation":[
		"Виды правовой помощи",
		"Контакты"
	],
	
	"licenseNum": "№ 02240/2796 от 24.06.2016",
	"licenseText": "Лицензия",
	"licenseIssuedBy": "выдана Министерством юстиции Республики Беларусь",

	"sectionContactsHeader": "КОНТАКТЫ",
	"mobilePhoneLabel": "Мобильный телефон",
	"mobilePhoneText": "+375 (29) 170-04-12",
	"mobilePhoneLink": "tel:+375291700412",
	"workPhoneLabel": "Рабочий телефон",
	"workPhoneText": "+375 (222) 31-02-79",
	"workPhoneLink": "tel:+375222310279",
	"downloadLabel": "скачать контактные данные и реквизиты для оплаты",
	"mapLabel": "На карте",
	"hintContent": "Специализированная юридическая консультация «Бизнес-Право»",
	"balloonContent": "г. Могилев, ул. Ленинская, 63, оф. 410",
	
	"sectionWelcomeHeader": "ЮРИДИЧЕСКАЯ ПОМОЩЬ АДВОКАТА",
	"greetingStrings": [
		"Правовая помощь по вопросам административного, брачно-семейного, гражданского, корпоративного, трудового, хозяйственного и иных отраслей права оказывается адвокатом как в городе Могилёве, так и на территории всей Республики Беларусь. Клиентами по договору на оказание юридической помощи могут выступать граждане Беларуси, индивидуальные предприниматели, юридические лица, организации и предприятия, являющиеся резидентами Республики Беларусь, а также иностранные граждане и зарубежные субъекты хозяйствования.",
		"Адвокатская деятельность осуществляется на профессиональной основе с соблюдением ключевых принципов работы адвоката: порядочности, конфиденциальности, доверительности и профессионализма в строгом соответствии с требованиями законодательства.",
		"Обратите внимание, что конституционная гарантия на защиту прав и законных интересов зачастую может быть реализована только при условии получения квалифицированной юридической помощи специалиста. Помощь адвоката позволяет знать и понимать свои права, использовать все предусмотренные законом средства правовой защиты и обеспечивает возможность компетентно отстаивать свои интересы в ходе возникшего правового спора. Своевременное обращение к адвокату за юридической консультацией позволит положительно разрешить сложившуюся ситуацию, будет способствовать реализации принадлежащих вам прав и восстановлению справедливости."
	],

	"sectionServicesHeader": "ВИДЫ ЮРИДИЧЕСКОЙ ПОМОЩИ",
	"companyServicesSubtitle": "для юридических лиц и индивидуальных предпринимателей",
	"companyServicesGrp1": [
		{
			"imagePath": "/assets/img/Company_1.png",
			"text": "взыскание дебиторской задолженности и штрафных санкций"
		},
		{
			"imagePath": "/assets/img/Company_2.png",
			"text": "разработка и юридическая экспертиза документов правового характера"
		},
		{
			"imagePath": "/assets/img/Company_3.png",
			"text": "юридическая помощь в процедуре банкротства"
		}
	],
	"companyServicesGrp2": [
		{
			"imagePath": "/assets/img/Company_4.png",
			"text": "комплексное юридическое обслуживание индивидуальных предпринимателей, предприятий и организаций"
		},
		{
			"imagePath": "/assets/img/Company_5.png",
			"text": "представительство интересов клиента в органах государственной власти и управления"
		},
		{
			"imagePath": "/assets/img/Company_6.png",
			"text": "регистрация и реорганизация юридических лиц всех организационно-правовых форм"
		}
	],

	"personServicesSubtitle": "для граждан",
	"personServicesGrp1": [
		{
			"imagePath": "/assets/img/Person_1.png",
			"text": "консультации по вопросам административного, брачно-семейного, гражданского, трудового, хозяйственного и иных отраслей права"
		},
		{
			"imagePath": "/assets/img/Person_2.png",
			"text": "участие в судебных заседаниях по гражданским и экономическим делам"
		},
		{
			"imagePath": "/assets/img/Person_3.png",
			"text": "составление исков, жалоб, заявлений, претензий, ходатайств и иных документов"
		}
	],

	"additionalServicesText": "* по договоренности с клиентом возможно оказание иных видов правовой помощи"
}